{
    "KPlugin": {
        "Authors": [
            {
                "Email": "ivan.cukic@kde.org",
                "Name": "Ivan Čukić",
                "Name[ca@valencia]": "Ivan Čukić",
                "Name[ca]": "Ivan Čukić",
                "Name[cs]": "Ivan Čukić",
                "Name[de]": "Ivan Čukić",
                "Name[en_GB]": "Ivan Čukić",
                "Name[es]": "Ivan Čukić",
                "Name[et]": "Ivan Čukić",
                "Name[fi]": "Ivan Čukić",
                "Name[fr]": "Ivan Čukić",
                "Name[gl]": "Ivan Čukić",
                "Name[it]": "Ivan Čukić",
                "Name[ko]": "Ivan Čukić",
                "Name[lt]": "Ivan Čukić",
                "Name[nl]": "Ivan Čukić",
                "Name[nn]": "Ivan Čukić",
                "Name[pl]": "Ivan Čukić",
                "Name[pt]": "Ivan Čukić",
                "Name[pt_BR]": "Ivan Čukić",
                "Name[ro]": "Ivan Čukić",
                "Name[ru]": "Ivan Čukić",
                "Name[sk]": "Ivan Čukić",
                "Name[sl]": "Ivan Čukić",
                "Name[sv]": "Ivan Čukić",
                "Name[uk]": "Ivan Čukić",
                "Name[x-test]": "xxIvan Čukićxx",
                "Name[zh_TW]": "Ivan Čukić"
            }
        ],
        "Category": "",
        "Dependencies": [],
        "Description": "Runner that searches for activities",
        "Description[ca@valencia]": "Executor que cerca per les activitats",
        "Description[ca]": "Executor que cerca per les activitats",
        "Description[de]": "Programmmodul für die Suche nach Aktivitäten",
        "Description[en_GB]": "Runner that searches for activities",
        "Description[es]": "Ejecutor que busca actividades",
        "Description[et]": "Käivitaja, mis otsib tegevusi",
        "Description[fi]": "Aktiviteettien haku",
        "Description[fr]": "Module « Runner » recherchant des activités",
        "Description[gl]": "Executor que busca actividades",
        "Description[it]": "Esecutore che cerca le attività",
        "Description[ko]": "활동을 검색하는 실행기",
        "Description[lt]": "Paleidiklis, kuris atlieka paiešką veiklose",
        "Description[nl]": "Runner die zoekt naar activiteiten",
        "Description[nn]": "Køyrar som søkjer etter aktivitetar",
        "Description[pl]": "Moduł wyszukujący aktywności",
        "Description[pt]": "Módulo de execução que pesquisa por actividades",
        "Description[pt_BR]": "Módulo de execução que pesquisa por atividades",
        "Description[ro]": "Executor ce caută activități",
        "Description[sl]": "Runner, ki išče dejavnosti",
        "Description[sv]": "Körprogram som söker efter aktiviteter",
        "Description[uk]": "Засіб запуску для пошуку просторів дій",
        "Description[x-test]": "xxRunner that searches for activitiesxx",
        "Description[zh_TW]": "可用來搜尋活動的執行器",
        "EnabledByDefault": true,
        "Icon": "preferences-activities",
        "Id": "org.kde.plasma.blade.Activities",
        "License": "GPL",
        "Name": "Activities",
        "Name[ca@valencia]": "Activitats",
        "Name[ca]": "Activitats",
        "Name[cs]": "Aktivity",
        "Name[de]": "Aktivitäten",
        "Name[en_GB]": "Activities",
        "Name[es]": "Actividades",
        "Name[et]": "Tegevused",
        "Name[fi]": "Aktiviteetit",
        "Name[fr]": "Activités",
        "Name[gl]": "Actividades",
        "Name[it]": "Attività",
        "Name[ko]": "활동",
        "Name[lt]": "Veiklos",
        "Name[nl]": "Activiteiten",
        "Name[nn]": "Aktivitetar",
        "Name[pl]": "Aktywności",
        "Name[pt]": "Actividades",
        "Name[pt_BR]": "Atividades",
        "Name[ro]": "Activități",
        "Name[ru]": "Комнаты",
        "Name[sk]": "Aktivity",
        "Name[sl]": "Dejavnosti",
        "Name[sv]": "Aktiviteter",
        "Name[uk]": "Простори дій",
        "Name[x-test]": "xxActivitiesxx",
        "Name[zh_TW]": "活動",
        "ServiceTypes": [
            "Blade/Plugin"
        ],
        "Version": "1.0",
        "Website": "http://plasma.kde.org/"
    }
}
